// emacs: this is -*- c++ -*-

#define LARGED0_EL

#include "TIDAdata_cuts.dat"

refChain = "Truth";
//refChain = "Offline";
//refChain = "Electrons";
//refChain = "Muons";
//refChain = "Taus";

MinVertices = 0;

#include "TIDAdata_chains.dat"

InitialiseFirstEvent = 1;

outputFile = "data-output.root";
DataFiles = { "TrkNtuple-0000.root"};
//DataSets = {"./"}


#include "TIDAbeam.dat"
